# Name,   Type, SubType, Offset,  Size, Flags
# Note: if you change the phy_init or app partition offset, make sure to change the offset in Kconfig.projbuild
nvs,      data, nvs,     0x9000,  0x4000,
otadata,  data, ota,     0xD000,  0x2000,
phy_init, data, phy,     0xf000,  0x1000,
ota_0,    0,    ota_0,   0x10000, 0xEC000,
ota_1,    0,    ota_1,   0x110000,0xEC000,
www,      data, spiffs,  0x210000,1M,